Added Component: Designator=LS3(RelayDPDTPCB)
Add component. Clean all parameters for all variants
Added Pin To Net: NetName=5 VDC Pin=LS3-1
Added Pin To Net: NetName=NetC8_1 Pin=LS3-4
Added Pin To Net: NetName=24 VDC Pin=LS3-6
Added Pin To Net: NetName=NetD1_A Pin=LS3-16
Added Member To Class: ClassName=2286 Member=Component AS3 CON34A
Added Member To Class: ClassName=2286 Member=Component C7 100 uF
Added Member To Class: ClassName=2286 Member=Component C8 0.1 uF
Added Member To Class: ClassName=2286 Member=Component D1 1N4003
Added Member To Class: ClassName=2286 Member=Component D2 1N4003
Added Member To Class: ClassName=2286 Member=Component D3 1N4003
Added Member To Class: ClassName=2286 Member=Component D4 1N4003
Added Member To Class: ClassName=2286 Member=Component D5 1N4003
Added Member To Class: ClassName=2286 Member=Component D6 1N4003
Added Member To Class: ClassName=2286 Member=Component J2 CON34A
Added Member To Class: ClassName=2286 Member=Component J3 CONNECTOR DB25
Added Member To Class: ClassName=2286 Member=Component J7 HEADER 4
Added Member To Class: ClassName=2286 Member=Component JP1 Remote Start
Added Member To Class: ClassName=2286 Member=Component JP2 Analog Out
Added Member To Class: ClassName=2286 Member=Component JP3 Alarm Relays
Added Member To Class: ClassName=2286 Member=Component LS1 RELAY DPDT
Added Member To Class: ClassName=2286 Member=Component LS2 RELAY DPDT
Added Member To Class: ClassName=2286 Member=Component LS3 RELAY DPDT
Added Member To Class: ClassName=2286 Member=Component LS4 RELAY DPDT
Added Member To Class: ClassName=2286 Member=Component LS5 RELAY DPDT
Added Member To Class: ClassName=2286 Member=Component P1 CONNECTOR DB37
Added Member To Class: ClassName=2286 Member=Component P2 CONNECTOR DB25
Added Member To Class: ClassName=2286 Member=Component Q1 2N3904
Added Member To Class: ClassName=2286 Member=Component R18 732
Added Member To Class: ClassName=2286 Member=Component R19 243
Added Member To Class: ClassName=2286 Member=Component U1 ULN2065
Added Member To Class: ClassName=2286 Member=Component U2 ULN2065
Added Member To Class: ClassName=2286 Member=Component U3 ULN2065
Added Member To Class: ClassName=2286 Member=Component U4 ULN2065
Added Member To Class: ClassName=2286 Member=Component U5 ULN2065
Added Member To Class: ClassName=2286 Member=Component U6 ULN2065
Added Member To Class: ClassName=2286 Member=Component U8 LM317T
