Change Component Parameter Description in J4 Old=Socket New=Do Not Install
Change Component Parameter Description in J5 Old=Socket New=Do Not Install
Change Component Parameter Description in J6 Old=Socket New=Do Not Install
Change Component Parameter Description in J8 Old=Socket New=Do Not Install
Change Component Parameter Description in J9 Old=Socket New=Do Not Install
Added Parameter WPN=0000 to Part J4
Added Parameter WPN=0000 to Part J5
Added Parameter WPN=0000 to Part J6
Added Parameter WPN=0000 to Part J8
Added Parameter WPN=0000 to Part J9
