Removed Pin From Net: NetName=NetAS3_1 Pin=AS3-1
Removed Pin From Net: NetName=NetAS3_2 Pin=AS3-2
Removed Pin From Net: NetName=GND Pin=AS3-3
Removed Pin From Net: NetName=GND Pin=AS3-4
Removed Pin From Net: NetName=NetAS3_5 Pin=AS3-5
Removed Pin From Net: NetName=NetAS3_6 Pin=AS3-6
Removed Pin From Net: NetName=NetAS3_7 Pin=AS3-7
Removed Pin From Net: NetName=NetAS3_8 Pin=AS3-8
Removed Pin From Net: NetName=NetAS3_9 Pin=AS3-9
Removed Pin From Net: NetName=NetAS3_10 Pin=AS3-10
Removed Pin From Net: NetName=NetAS3_11 Pin=AS3-11
Removed Pin From Net: NetName=NetAS3_12 Pin=AS3-12
Removed Pin From Net: NetName=NetAS3_20 Pin=AS3-20
Removed Pin From Net: NetName=NetAS3_21 Pin=AS3-21
Removed Pin From Net: NetName=NetAS3_22 Pin=AS3-22
Removed Pin From Net: NetName=NetAS3_23 Pin=AS3-23
Removed Pin From Net: NetName=NetAS3_24 Pin=AS3-24
Removed Pin From Net: NetName=NetAS3_25 Pin=AS3-25
Removed Pin From Net: NetName=NetAS3_26 Pin=AS3-26
Removed Pin From Net: NetName=NetAS3_27 Pin=AS3-27
Removed Pin From Net: NetName=NetAS3_28 Pin=AS3-28
Removed Pin From Net: NetName=NetAS3_29 Pin=AS3-29
Removed Pin From Net: NetName=NetAS3_30 Pin=AS3-30
Removed Pin From Net: NetName=NetAS3_31 Pin=AS3-31
Removed Pin From Net: NetName=NetAS3_2 Pin=JP2-1
Removed Pin From Net: NetName=24 VDC Pin=U1-1
Removed Pin From Net: NetName=V1 Pin=U1-2
Removed Pin From Net: NetName=CNTRL1 Pin=U1-3
Removed Pin From Net: NetName=GND Pin=U1-4
Removed Pin From Net: NetName=GND Pin=U1-5
Removed Pin From Net: NetName=CNTRL2 Pin=U1-6
Removed Pin From Net: NetName=V2 Pin=U1-7
Removed Pin From Net: NetName=24 VDC Pin=U1-8
Removed Pin From Net: NetName=V3 Pin=U1-9
Removed Pin From Net: NetName=CNTRL3 Pin=U1-11
Removed Pin From Net: NetName=GND Pin=U1-12
Removed Pin From Net: NetName=GND Pin=U1-13
Removed Pin From Net: NetName=CNTRL4 Pin=U1-14
Removed Pin From Net: NetName=V4 Pin=U1-16
Removed Pin From Net: NetName=24 VDC Pin=U2-1
Removed Pin From Net: NetName=V5 Pin=U2-2
Removed Pin From Net: NetName=CNTRL5 Pin=U2-3
Removed Pin From Net: NetName=GND Pin=U2-4
Removed Pin From Net: NetName=GND Pin=U2-5
Removed Pin From Net: NetName=CNTRL6 Pin=U2-6
Removed Pin From Net: NetName=V6 Pin=U2-7
Removed Pin From Net: NetName=24 VDC Pin=U2-8
Removed Pin From Net: NetName=V7 Pin=U2-9
Removed Pin From Net: NetName=CNTRL7 Pin=U2-11
Removed Pin From Net: NetName=GND Pin=U2-12
Removed Pin From Net: NetName=GND Pin=U2-13
Removed Pin From Net: NetName=CNTRL8 Pin=U2-14
Removed Pin From Net: NetName=V8 Pin=U2-16
Removed Pin From Net: NetName=24 VDC Pin=U3-1
Removed Pin From Net: NetName=V9 Pin=U3-2
Removed Pin From Net: NetName=CNTRL9 Pin=U3-3
Removed Pin From Net: NetName=GND Pin=U3-4
Removed Pin From Net: NetName=GND Pin=U3-5
Removed Pin From Net: NetName=CNTRL10 Pin=U3-6
Removed Pin From Net: NetName=V10 Pin=U3-7
Removed Pin From Net: NetName=24 VDC Pin=U3-8
Removed Pin From Net: NetName=V11 Pin=U3-9
Removed Pin From Net: NetName=CNTRL11 Pin=U3-11
Removed Pin From Net: NetName=GND Pin=U3-12
Removed Pin From Net: NetName=GND Pin=U3-13
Removed Pin From Net: NetName=CNTRL12 Pin=U3-14
Removed Pin From Net: NetName=V12 Pin=U3-16
Removed Pin From Net: NetName=24 VDC Pin=U4-1
Removed Pin From Net: NetName=V13 Pin=U4-2
Removed Pin From Net: NetName=CNTRL13 Pin=U4-3
Removed Pin From Net: NetName=GND Pin=U4-4
Removed Pin From Net: NetName=GND Pin=U4-5
Removed Pin From Net: NetName=CNTRL14 Pin=U4-6
Removed Pin From Net: NetName=V14 Pin=U4-7
Removed Pin From Net: NetName=24 VDC Pin=U4-8
Removed Pin From Net: NetName=V15 Pin=U4-9
Removed Pin From Net: NetName=CNTRL15 Pin=U4-11
Removed Pin From Net: NetName=GND Pin=U4-12
Removed Pin From Net: NetName=GND Pin=U4-13
Removed Pin From Net: NetName=CNTRL16 Pin=U4-14
Removed Pin From Net: NetName=V16 Pin=U4-16
Removed Pin From Net: NetName=24 VDC Pin=U5-1
Removed Pin From Net: NetName=V17 Pin=U5-2
Removed Pin From Net: NetName=CNTRL17 Pin=U5-3
Removed Pin From Net: NetName=GND Pin=U5-4
Removed Pin From Net: NetName=GND Pin=U5-5
Removed Pin From Net: NetName=CNTRL18 Pin=U5-6
Removed Pin From Net: NetName=V18 Pin=U5-7
Removed Pin From Net: NetName=24 VDC Pin=U5-8
Removed Pin From Net: NetName=V19 Pin=U5-9
Removed Pin From Net: NetName=CNTRL19 Pin=U5-11
Removed Pin From Net: NetName=GND Pin=U5-12
Removed Pin From Net: NetName=GND Pin=U5-13
Removed Pin From Net: NetName=CNTRL20 Pin=U5-14
Removed Pin From Net: NetName=V20 Pin=U5-16
Removed Pin From Net: NetName=24 VDC Pin=U6-1
Removed Pin From Net: NetName=V21 Pin=U6-2
Removed Pin From Net: NetName=CNTRL21 Pin=U6-3
Removed Pin From Net: NetName=GND Pin=U6-4
Removed Pin From Net: NetName=GND Pin=U6-5
Removed Pin From Net: NetName=CNTRL22 Pin=U6-6
Removed Pin From Net: NetName=V22 Pin=U6-7
Removed Pin From Net: NetName=24 VDC Pin=U6-8
Removed Pin From Net: NetName=GND Pin=U6-12
Removed Pin From Net: NetName=GND Pin=U6-13
Change Component Designator: OldDesignator=Q1 NewDesignator=Q23
Added Component: Designator=AS3(USB6008)
Add component. Clean all parameters for all variants
Add component (AddParameter): Name = "Supplier 1"; Value = "Newark"; VariantName = "[No Variations]"
Add component (AddParameter): Name = "Supplier Part Number 1"; Value = "99K0939"; VariantName = "[No Variations]"
Add component (AddParameter): Name = "WPN"; Value = "22502-002"; VariantName = "[No Variations]"
Added Component: Designator=J7A(HDR1X4)
Add component. Clean all parameters for all variants
Add component (AddParameter): Name = "LatestRevisionDate"; Value = "17-Jul-2002"; VariantName = "[No Variations]"
Add component (AddParameter): Name = "LatestRevisionNote"; Value = "Re-released for DXP Platform."; VariantName = "[No Variations]"
Add component (AddParameter): Name = "Publisher"; Value = "Altium Limited"; VariantName = "[No Variations]"
Add component (AddParameter): Name = "Supplier 1"; Value = "Newark"; VariantName = "[No Variations]"
Add component (AddParameter): Name = "Supplier Part Number 1"; Value = "99R3992"; VariantName = "[No Variations]"
Add component (AddParameter): Name = "WPN"; Value = "s2051-003"; VariantName = "[No Variations]"
Added Component: Designator=Q1(SOT223_N)
Add component. Clean all parameters for all variants
Add component (AddParameter): Name = "LatestRevisionDate"; Value = "17-Jul-2002"; VariantName = "[No Variations]"
Add component (AddParameter): Name = "LatestRevisionNote"; Value = "Re-released for DXP Platform."; VariantName = "[No Variations]"
Add component (AddParameter): Name = "PackageDescription"; Value = "TO, Flat Index; 3 In-Line, Axial Leads; Body Dia. 4.6mm; Lead Dia. 0.5 mm (max)"; VariantName = "[No Variations]"
Add component (AddParameter): Name = "PackageReference"; Value = "E3"; VariantName = "[No Variations]"
Add component (AddParameter): Name = "PackageVersion"; Value = "1995/1996"; VariantName = "[No Variations]"
Add component (AddParameter): Name = "Published"; Value = "8-Jun-2000"; VariantName = "[No Variations]"
Add component (AddParameter): Name = "Publisher"; Value = "Altium Limited"; VariantName = "[No Variations]"
Add component (AddParameter): Name = "Supplier 1"; Value = "Digi-Key"; VariantName = "[No Variations]"
Add component (AddParameter): Name = "Supplier Part Number 1"; Value = "NCV8402ASTT1GOSDKR-ND"; VariantName = "[No Variations]"
Added Component: Designator=Q2(SOT223_N)
Add component. Clean all parameters for all variants
Add component (AddParameter): Name = "LatestRevisionDate"; Value = "17-Jul-2002"; VariantName = "[No Variations]"
Add component (AddParameter): Name = "LatestRevisionNote"; Value = "Re-released for DXP Platform."; VariantName = "[No Variations]"
Add component (AddParameter): Name = "PackageDescription"; Value = "TO, Flat Index; 3 In-Line, Axial Leads; Body Dia. 4.6mm; Lead Dia. 0.5 mm (max)"; VariantName = "[No Variations]"
Add component (AddParameter): Name = "PackageReference"; Value = "E3"; VariantName = "[No Variations]"
Add component (AddParameter): Name = "PackageVersion"; Value = "1995/1996"; VariantName = "[No Variations]"
Add component (AddParameter): Name = "Published"; Value = "8-Jun-2000"; VariantName = "[No Variations]"
Add component (AddParameter): Name = "Publisher"; Value = "Altium Limited"; VariantName = "[No Variations]"
Add component (AddParameter): Name = "Supplier 1"; Value = "Digi-Key"; VariantName = "[No Variations]"
Add component (AddParameter): Name = "Supplier Part Number 1"; Value = "NCV8402ASTT1GOSDKR-ND"; VariantName = "[No Variations]"
Added Component: Designator=Q3(SOT223_N)
Add component. Clean all parameters for all variants
Add component (AddParameter): Name = "LatestRevisionDate"; Value = "17-Jul-2002"; VariantName = "[No Variations]"
Add component (AddParameter): Name = "LatestRevisionNote"; Value = "Re-released for DXP Platform."; VariantName = "[No Variations]"
Add component (AddParameter): Name = "PackageDescription"; Value = "TO, Flat Index; 3 In-Line, Axial Leads; Body Dia. 4.6mm; Lead Dia. 0.5 mm (max)"; VariantName = "[No Variations]"
Add component (AddParameter): Name = "PackageReference"; Value = "E3"; VariantName = "[No Variations]"
Add component (AddParameter): Name = "PackageVersion"; Value = "1995/1996"; VariantName = "[No Variations]"
Add component (AddParameter): Name = "Published"; Value = "8-Jun-2000"; VariantName = "[No Variations]"
Add component (AddParameter): Name = "Publisher"; Value = "Altium Limited"; VariantName = "[No Variations]"
Add component (AddParameter): Name = "Supplier 1"; Value = "Digi-Key"; VariantName = "[No Variations]"
Add component (AddParameter): Name = "Supplier Part Number 1"; Value = "NCV8402ASTT1GOSDKR-ND"; VariantName = "[No Variations]"
Added Component: Designator=Q4(SOT223_N)
Add component. Clean all parameters for all variants
Add component (AddParameter): Name = "LatestRevisionDate"; Value = "17-Jul-2002"; VariantName = "[No Variations]"
Add component (AddParameter): Name = "LatestRevisionNote"; Value = "Re-released for DXP Platform."; VariantName = "[No Variations]"
Add component (AddParameter): Name = "PackageDescription"; Value = "TO, Flat Index; 3 In-Line, Axial Leads; Body Dia. 4.6mm; Lead Dia. 0.5 mm (max)"; VariantName = "[No Variations]"
Add component (AddParameter): Name = "PackageReference"; Value = "E3"; VariantName = "[No Variations]"
Add component (AddParameter): Name = "PackageVersion"; Value = "1995/1996"; VariantName = "[No Variations]"
Add component (AddParameter): Name = "Published"; Value = "8-Jun-2000"; VariantName = "[No Variations]"
Add component (AddParameter): Name = "Publisher"; Value = "Altium Limited"; VariantName = "[No Variations]"
Add component (AddParameter): Name = "Supplier 1"; Value = "Digi-Key"; VariantName = "[No Variations]"
Add component (AddParameter): Name = "Supplier Part Number 1"; Value = "NCV8402ASTT1GOSDKR-ND"; VariantName = "[No Variations]"
Added Component: Designator=Q5(SOT223_N)
Add component. Clean all parameters for all variants
Add component (AddParameter): Name = "LatestRevisionDate"; Value = "17-Jul-2002"; VariantName = "[No Variations]"
Add component (AddParameter): Name = "LatestRevisionNote"; Value = "Re-released for DXP Platform."; VariantName = "[No Variations]"
Add component (AddParameter): Name = "PackageDescription"; Value = "TO, Flat Index; 3 In-Line, Axial Leads; Body Dia. 4.6mm; Lead Dia. 0.5 mm (max)"; VariantName = "[No Variations]"
Add component (AddParameter): Name = "PackageReference"; Value = "E3"; VariantName = "[No Variations]"
Add component (AddParameter): Name = "PackageVersion"; Value = "1995/1996"; VariantName = "[No Variations]"
Add component (AddParameter): Name = "Published"; Value = "8-Jun-2000"; VariantName = "[No Variations]"
Add component (AddParameter): Name = "Publisher"; Value = "Altium Limited"; VariantName = "[No Variations]"
Add component (AddParameter): Name = "Supplier 1"; Value = "Digi-Key"; VariantName = "[No Variations]"
Add component (AddParameter): Name = "Supplier Part Number 1"; Value = "NCV8402ASTT1GOSDKR-ND"; VariantName = "[No Variations]"
Added Component: Designator=Q6(SOT223_N)
Add component. Clean all parameters for all variants
Add component (AddParameter): Name = "LatestRevisionDate"; Value = "17-Jul-2002"; VariantName = "[No Variations]"
Add component (AddParameter): Name = "LatestRevisionNote"; Value = "Re-released for DXP Platform."; VariantName = "[No Variations]"
Add component (AddParameter): Name = "PackageDescription"; Value = "TO, Flat Index; 3 In-Line, Axial Leads; Body Dia. 4.6mm; Lead Dia. 0.5 mm (max)"; VariantName = "[No Variations]"
Add component (AddParameter): Name = "PackageReference"; Value = "E3"; VariantName = "[No Variations]"
Add component (AddParameter): Name = "PackageVersion"; Value = "1995/1996"; VariantName = "[No Variations]"
Add component (AddParameter): Name = "Published"; Value = "8-Jun-2000"; VariantName = "[No Variations]"
Add component (AddParameter): Name = "Publisher"; Value = "Altium Limited"; VariantName = "[No Variations]"
Add component (AddParameter): Name = "Supplier 1"; Value = "Digi-Key"; VariantName = "[No Variations]"
Add component (AddParameter): Name = "Supplier Part Number 1"; Value = "NCV8402ASTT1GOSDKR-ND"; VariantName = "[No Variations]"
Added Component: Designator=Q7(SOT223_N)
Add component. Clean all parameters for all variants
Add component (AddParameter): Name = "LatestRevisionDate"; Value = "17-Jul-2002"; VariantName = "[No Variations]"
Add component (AddParameter): Name = "LatestRevisionNote"; Value = "Re-released for DXP Platform."; VariantName = "[No Variations]"
Add component (AddParameter): Name = "PackageDescription"; Value = "TO, Flat Index; 3 In-Line, Axial Leads; Body Dia. 4.6mm; Lead Dia. 0.5 mm (max)"; VariantName = "[No Variations]"
Add component (AddParameter): Name = "PackageReference"; Value = "E3"; VariantName = "[No Variations]"
Add component (AddParameter): Name = "PackageVersion"; Value = "1995/1996"; VariantName = "[No Variations]"
Add component (AddParameter): Name = "Published"; Value = "8-Jun-2000"; VariantName = "[No Variations]"
Add component (AddParameter): Name = "Publisher"; Value = "Altium Limited"; VariantName = "[No Variations]"
Add component (AddParameter): Name = "Supplier 1"; Value = "Digi-Key"; VariantName = "[No Variations]"
Add component (AddParameter): Name = "Supplier Part Number 1"; Value = "NCV8402ASTT1GOSDKR-ND"; VariantName = "[No Variations]"
Added Component: Designator=Q8(SOT223_N)
Add component. Clean all parameters for all variants
Add component (AddParameter): Name = "LatestRevisionDate"; Value = "17-Jul-2002"; VariantName = "[No Variations]"
Add component (AddParameter): Name = "LatestRevisionNote"; Value = "Re-released for DXP Platform."; VariantName = "[No Variations]"
Add component (AddParameter): Name = "PackageDescription"; Value = "TO, Flat Index; 3 In-Line, Axial Leads; Body Dia. 4.6mm; Lead Dia. 0.5 mm (max)"; VariantName = "[No Variations]"
Add component (AddParameter): Name = "PackageReference"; Value = "E3"; VariantName = "[No Variations]"
Add component (AddParameter): Name = "PackageVersion"; Value = "1995/1996"; VariantName = "[No Variations]"
Add component (AddParameter): Name = "Published"; Value = "8-Jun-2000"; VariantName = "[No Variations]"
Add component (AddParameter): Name = "Publisher"; Value = "Altium Limited"; VariantName = "[No Variations]"
Add component (AddParameter): Name = "Supplier 1"; Value = "Digi-Key"; VariantName = "[No Variations]"
Add component (AddParameter): Name = "Supplier Part Number 1"; Value = "NCV8402ASTT1GOSDKR-ND"; VariantName = "[No Variations]"
Added Component: Designator=Q9(SOT223_N)
Add component. Clean all parameters for all variants
Add component (AddParameter): Name = "LatestRevisionDate"; Value = "17-Jul-2002"; VariantName = "[No Variations]"
Add component (AddParameter): Name = "LatestRevisionNote"; Value = "Re-released for DXP Platform."; VariantName = "[No Variations]"
Add component (AddParameter): Name = "PackageDescription"; Value = "TO, Flat Index; 3 In-Line, Axial Leads; Body Dia. 4.6mm; Lead Dia. 0.5 mm (max)"; VariantName = "[No Variations]"
Add component (AddParameter): Name = "PackageReference"; Value = "E3"; VariantName = "[No Variations]"
Add component (AddParameter): Name = "PackageVersion"; Value = "1995/1996"; VariantName = "[No Variations]"
Add component (AddParameter): Name = "Published"; Value = "8-Jun-2000"; VariantName = "[No Variations]"
Add component (AddParameter): Name = "Publisher"; Value = "Altium Limited"; VariantName = "[No Variations]"
Add component (AddParameter): Name = "Supplier 1"; Value = "Digi-Key"; VariantName = "[No Variations]"
Add component (AddParameter): Name = "Supplier Part Number 1"; Value = "NCV8402ASTT1GOSDKR-ND"; VariantName = "[No Variations]"
Added Component: Designator=Q10(SOT223_N)
Add component. Clean all parameters for all variants
Add component (AddParameter): Name = "LatestRevisionDate"; Value = "17-Jul-2002"; VariantName = "[No Variations]"
Add component (AddParameter): Name = "LatestRevisionNote"; Value = "Re-released for DXP Platform."; VariantName = "[No Variations]"
Add component (AddParameter): Name = "PackageDescription"; Value = "TO, Flat Index; 3 In-Line, Axial Leads; Body Dia. 4.6mm; Lead Dia. 0.5 mm (max)"; VariantName = "[No Variations]"
Add component (AddParameter): Name = "PackageReference"; Value = "E3"; VariantName = "[No Variations]"
Add component (AddParameter): Name = "PackageVersion"; Value = "1995/1996"; VariantName = "[No Variations]"
Add component (AddParameter): Name = "Published"; Value = "8-Jun-2000"; VariantName = "[No Variations]"
Add component (AddParameter): Name = "Publisher"; Value = "Altium Limited"; VariantName = "[No Variations]"
Add component (AddParameter): Name = "Supplier 1"; Value = "Digi-Key"; VariantName = "[No Variations]"
Add component (AddParameter): Name = "Supplier Part Number 1"; Value = "NCV8402ASTT1GOSDKR-ND"; VariantName = "[No Variations]"
Added Component: Designator=Q11(SOT223_N)
Add component. Clean all parameters for all variants
Add component (AddParameter): Name = "LatestRevisionDate"; Value = "17-Jul-2002"; VariantName = "[No Variations]"
Add component (AddParameter): Name = "LatestRevisionNote"; Value = "Re-released for DXP Platform."; VariantName = "[No Variations]"
Add component (AddParameter): Name = "PackageDescription"; Value = "TO, Flat Index; 3 In-Line, Axial Leads; Body Dia. 4.6mm; Lead Dia. 0.5 mm (max)"; VariantName = "[No Variations]"
Add component (AddParameter): Name = "PackageReference"; Value = "E3"; VariantName = "[No Variations]"
Add component (AddParameter): Name = "PackageVersion"; Value = "1995/1996"; VariantName = "[No Variations]"
Add component (AddParameter): Name = "Published"; Value = "8-Jun-2000"; VariantName = "[No Variations]"
Add component (AddParameter): Name = "Publisher"; Value = "Altium Limited"; VariantName = "[No Variations]"
Add component (AddParameter): Name = "Supplier 1"; Value = "Digi-Key"; VariantName = "[No Variations]"
Add component (AddParameter): Name = "Supplier Part Number 1"; Value = "NCV8402ASTT1GOSDKR-ND"; VariantName = "[No Variations]"
Added Component: Designator=Q12(SOT223_N)
Add component. Clean all parameters for all variants
Add component (AddParameter): Name = "LatestRevisionDate"; Value = "17-Jul-2002"; VariantName = "[No Variations]"
Add component (AddParameter): Name = "LatestRevisionNote"; Value = "Re-released for DXP Platform."; VariantName = "[No Variations]"
Add component (AddParameter): Name = "PackageDescription"; Value = "TO, Flat Index; 3 In-Line, Axial Leads; Body Dia. 4.6mm; Lead Dia. 0.5 mm (max)"; VariantName = "[No Variations]"
Add component (AddParameter): Name = "PackageReference"; Value = "E3"; VariantName = "[No Variations]"
Add component (AddParameter): Name = "PackageVersion"; Value = "1995/1996"; VariantName = "[No Variations]"
Add component (AddParameter): Name = "Published"; Value = "8-Jun-2000"; VariantName = "[No Variations]"
Add component (AddParameter): Name = "Publisher"; Value = "Altium Limited"; VariantName = "[No Variations]"
Add component (AddParameter): Name = "Supplier 1"; Value = "Digi-Key"; VariantName = "[No Variations]"
Add component (AddParameter): Name = "Supplier Part Number 1"; Value = "NCV8402ASTT1GOSDKR-ND"; VariantName = "[No Variations]"
Added Component: Designator=Q13(SOT223_N)
Add component. Clean all parameters for all variants
Add component (AddParameter): Name = "LatestRevisionDate"; Value = "17-Jul-2002"; VariantName = "[No Variations]"
Add component (AddParameter): Name = "LatestRevisionNote"; Value = "Re-released for DXP Platform."; VariantName = "[No Variations]"
Add component (AddParameter): Name = "PackageDescription"; Value = "TO, Flat Index; 3 In-Line, Axial Leads; Body Dia. 4.6mm; Lead Dia. 0.5 mm (max)"; VariantName = "[No Variations]"
Add component (AddParameter): Name = "PackageReference"; Value = "E3"; VariantName = "[No Variations]"
Add component (AddParameter): Name = "PackageVersion"; Value = "1995/1996"; VariantName = "[No Variations]"
Add component (AddParameter): Name = "Published"; Value = "8-Jun-2000"; VariantName = "[No Variations]"
Add component (AddParameter): Name = "Publisher"; Value = "Altium Limited"; VariantName = "[No Variations]"
Add component (AddParameter): Name = "Supplier 1"; Value = "Digi-Key"; VariantName = "[No Variations]"
Add component (AddParameter): Name = "Supplier Part Number 1"; Value = "NCV8402ASTT1GOSDKR-ND"; VariantName = "[No Variations]"
Added Component: Designator=Q14(SOT223_N)
Add component. Clean all parameters for all variants
Add component (AddParameter): Name = "LatestRevisionDate"; Value = "17-Jul-2002"; VariantName = "[No Variations]"
Add component (AddParameter): Name = "LatestRevisionNote"; Value = "Re-released for DXP Platform."; VariantName = "[No Variations]"
Add component (AddParameter): Name = "PackageDescription"; Value = "TO, Flat Index; 3 In-Line, Axial Leads; Body Dia. 4.6mm; Lead Dia. 0.5 mm (max)"; VariantName = "[No Variations]"
Add component (AddParameter): Name = "PackageReference"; Value = "E3"; VariantName = "[No Variations]"
Add component (AddParameter): Name = "PackageVersion"; Value = "1995/1996"; VariantName = "[No Variations]"
Add component (AddParameter): Name = "Published"; Value = "8-Jun-2000"; VariantName = "[No Variations]"
Add component (AddParameter): Name = "Publisher"; Value = "Altium Limited"; VariantName = "[No Variations]"
Add component (AddParameter): Name = "Supplier 1"; Value = "Digi-Key"; VariantName = "[No Variations]"
Add component (AddParameter): Name = "Supplier Part Number 1"; Value = "NCV8402ASTT1GOSDKR-ND"; VariantName = "[No Variations]"
Added Component: Designator=Q15(SOT223_N)
Add component. Clean all parameters for all variants
Add component (AddParameter): Name = "LatestRevisionDate"; Value = "17-Jul-2002"; VariantName = "[No Variations]"
Add component (AddParameter): Name = "LatestRevisionNote"; Value = "Re-released for DXP Platform."; VariantName = "[No Variations]"
Add component (AddParameter): Name = "PackageDescription"; Value = "TO, Flat Index; 3 In-Line, Axial Leads; Body Dia. 4.6mm; Lead Dia. 0.5 mm (max)"; VariantName = "[No Variations]"
Add component (AddParameter): Name = "PackageReference"; Value = "E3"; VariantName = "[No Variations]"
Add component (AddParameter): Name = "PackageVersion"; Value = "1995/1996"; VariantName = "[No Variations]"
Add component (AddParameter): Name = "Published"; Value = "8-Jun-2000"; VariantName = "[No Variations]"
Add component (AddParameter): Name = "Publisher"; Value = "Altium Limited"; VariantName = "[No Variations]"
Add component (AddParameter): Name = "Supplier 1"; Value = "Digi-Key"; VariantName = "[No Variations]"
Add component (AddParameter): Name = "Supplier Part Number 1"; Value = "NCV8402ASTT1GOSDKR-ND"; VariantName = "[No Variations]"
Added Component: Designator=Q16(SOT223_N)
Add component. Clean all parameters for all variants
Add component (AddParameter): Name = "LatestRevisionDate"; Value = "17-Jul-2002"; VariantName = "[No Variations]"
Add component (AddParameter): Name = "LatestRevisionNote"; Value = "Re-released for DXP Platform."; VariantName = "[No Variations]"
Add component (AddParameter): Name = "PackageDescription"; Value = "TO, Flat Index; 3 In-Line, Axial Leads; Body Dia. 4.6mm; Lead Dia. 0.5 mm (max)"; VariantName = "[No Variations]"
Add component (AddParameter): Name = "PackageReference"; Value = "E3"; VariantName = "[No Variations]"
Add component (AddParameter): Name = "PackageVersion"; Value = "1995/1996"; VariantName = "[No Variations]"
Add component (AddParameter): Name = "Published"; Value = "8-Jun-2000"; VariantName = "[No Variations]"
Add component (AddParameter): Name = "Publisher"; Value = "Altium Limited"; VariantName = "[No Variations]"
Add component (AddParameter): Name = "Supplier 1"; Value = "Digi-Key"; VariantName = "[No Variations]"
Add component (AddParameter): Name = "Supplier Part Number 1"; Value = "NCV8402ASTT1GOSDKR-ND"; VariantName = "[No Variations]"
Added Component: Designator=Q17(SOT223_N)
Add component. Clean all parameters for all variants
Add component (AddParameter): Name = "LatestRevisionDate"; Value = "17-Jul-2002"; VariantName = "[No Variations]"
Add component (AddParameter): Name = "LatestRevisionNote"; Value = "Re-released for DXP Platform."; VariantName = "[No Variations]"
Add component (AddParameter): Name = "PackageDescription"; Value = "TO, Flat Index; 3 In-Line, Axial Leads; Body Dia. 4.6mm; Lead Dia. 0.5 mm (max)"; VariantName = "[No Variations]"
Add component (AddParameter): Name = "PackageReference"; Value = "E3"; VariantName = "[No Variations]"
Add component (AddParameter): Name = "PackageVersion"; Value = "1995/1996"; VariantName = "[No Variations]"
Add component (AddParameter): Name = "Published"; Value = "8-Jun-2000"; VariantName = "[No Variations]"
Add component (AddParameter): Name = "Publisher"; Value = "Altium Limited"; VariantName = "[No Variations]"
Add component (AddParameter): Name = "Supplier 1"; Value = "Digi-Key"; VariantName = "[No Variations]"
Add component (AddParameter): Name = "Supplier Part Number 1"; Value = "NCV8402ASTT1GOSDKR-ND"; VariantName = "[No Variations]"
Added Component: Designator=Q18(SOT223_N)
Add component. Clean all parameters for all variants
Add component (AddParameter): Name = "LatestRevisionDate"; Value = "17-Jul-2002"; VariantName = "[No Variations]"
Add component (AddParameter): Name = "LatestRevisionNote"; Value = "Re-released for DXP Platform."; VariantName = "[No Variations]"
Add component (AddParameter): Name = "PackageDescription"; Value = "TO, Flat Index; 3 In-Line, Axial Leads; Body Dia. 4.6mm; Lead Dia. 0.5 mm (max)"; VariantName = "[No Variations]"
Add component (AddParameter): Name = "PackageReference"; Value = "E3"; VariantName = "[No Variations]"
Add component (AddParameter): Name = "PackageVersion"; Value = "1995/1996"; VariantName = "[No Variations]"
Add component (AddParameter): Name = "Published"; Value = "8-Jun-2000"; VariantName = "[No Variations]"
Add component (AddParameter): Name = "Publisher"; Value = "Altium Limited"; VariantName = "[No Variations]"
Add component (AddParameter): Name = "Supplier 1"; Value = "Digi-Key"; VariantName = "[No Variations]"
Add component (AddParameter): Name = "Supplier Part Number 1"; Value = "NCV8402ASTT1GOSDKR-ND"; VariantName = "[No Variations]"
Added Component: Designator=Q19(SOT223_N)
Add component. Clean all parameters for all variants
Add component (AddParameter): Name = "LatestRevisionDate"; Value = "17-Jul-2002"; VariantName = "[No Variations]"
Add component (AddParameter): Name = "LatestRevisionNote"; Value = "Re-released for DXP Platform."; VariantName = "[No Variations]"
Add component (AddParameter): Name = "PackageDescription"; Value = "TO, Flat Index; 3 In-Line, Axial Leads; Body Dia. 4.6mm; Lead Dia. 0.5 mm (max)"; VariantName = "[No Variations]"
Add component (AddParameter): Name = "PackageReference"; Value = "E3"; VariantName = "[No Variations]"
Add component (AddParameter): Name = "PackageVersion"; Value = "1995/1996"; VariantName = "[No Variations]"
Add component (AddParameter): Name = "Published"; Value = "8-Jun-2000"; VariantName = "[No Variations]"
Add component (AddParameter): Name = "Publisher"; Value = "Altium Limited"; VariantName = "[No Variations]"
Add component (AddParameter): Name = "Supplier 1"; Value = "Digi-Key"; VariantName = "[No Variations]"
Add component (AddParameter): Name = "Supplier Part Number 1"; Value = "NCV8402ASTT1GOSDKR-ND"; VariantName = "[No Variations]"
Added Component: Designator=Q20(SOT223_N)
Add component. Clean all parameters for all variants
Add component (AddParameter): Name = "LatestRevisionDate"; Value = "17-Jul-2002"; VariantName = "[No Variations]"
Add component (AddParameter): Name = "LatestRevisionNote"; Value = "Re-released for DXP Platform."; VariantName = "[No Variations]"
Add component (AddParameter): Name = "PackageDescription"; Value = "TO, Flat Index; 3 In-Line, Axial Leads; Body Dia. 4.6mm; Lead Dia. 0.5 mm (max)"; VariantName = "[No Variations]"
Add component (AddParameter): Name = "PackageReference"; Value = "E3"; VariantName = "[No Variations]"
Add component (AddParameter): Name = "PackageVersion"; Value = "1995/1996"; VariantName = "[No Variations]"
Add component (AddParameter): Name = "Published"; Value = "8-Jun-2000"; VariantName = "[No Variations]"
Add component (AddParameter): Name = "Publisher"; Value = "Altium Limited"; VariantName = "[No Variations]"
Add component (AddParameter): Name = "Supplier 1"; Value = "Digi-Key"; VariantName = "[No Variations]"
Add component (AddParameter): Name = "Supplier Part Number 1"; Value = "NCV8402ASTT1GOSDKR-ND"; VariantName = "[No Variations]"
Added Component: Designator=Q21(SOT223_N)
Add component. Clean all parameters for all variants
Add component (AddParameter): Name = "LatestRevisionDate"; Value = "17-Jul-2002"; VariantName = "[No Variations]"
Add component (AddParameter): Name = "LatestRevisionNote"; Value = "Re-released for DXP Platform."; VariantName = "[No Variations]"
Add component (AddParameter): Name = "PackageDescription"; Value = "TO, Flat Index; 3 In-Line, Axial Leads; Body Dia. 4.6mm; Lead Dia. 0.5 mm (max)"; VariantName = "[No Variations]"
Add component (AddParameter): Name = "PackageReference"; Value = "E3"; VariantName = "[No Variations]"
Add component (AddParameter): Name = "PackageVersion"; Value = "1995/1996"; VariantName = "[No Variations]"
Add component (AddParameter): Name = "Published"; Value = "8-Jun-2000"; VariantName = "[No Variations]"
Add component (AddParameter): Name = "Publisher"; Value = "Altium Limited"; VariantName = "[No Variations]"
Add component (AddParameter): Name = "Supplier 1"; Value = "Digi-Key"; VariantName = "[No Variations]"
Add component (AddParameter): Name = "Supplier Part Number 1"; Value = "NCV8402ASTT1GOSDKR-ND"; VariantName = "[No Variations]"
Added Component: Designator=Q22(SOT223_N)
Add component. Clean all parameters for all variants
Add component (AddParameter): Name = "LatestRevisionDate"; Value = "17-Jul-2002"; VariantName = "[No Variations]"
Add component (AddParameter): Name = "LatestRevisionNote"; Value = "Re-released for DXP Platform."; VariantName = "[No Variations]"
Add component (AddParameter): Name = "PackageDescription"; Value = "TO, Flat Index; 3 In-Line, Axial Leads; Body Dia. 4.6mm; Lead Dia. 0.5 mm (max)"; VariantName = "[No Variations]"
Add component (AddParameter): Name = "PackageReference"; Value = "E3"; VariantName = "[No Variations]"
Add component (AddParameter): Name = "PackageVersion"; Value = "1995/1996"; VariantName = "[No Variations]"
Add component (AddParameter): Name = "Published"; Value = "8-Jun-2000"; VariantName = "[No Variations]"
Add component (AddParameter): Name = "Publisher"; Value = "Altium Limited"; VariantName = "[No Variations]"
Add component (AddParameter): Name = "Supplier 1"; Value = "Digi-Key"; VariantName = "[No Variations]"
Add component (AddParameter): Name = "Supplier Part Number 1"; Value = "NCV8402ASTT1GOSDKR-ND"; VariantName = "[No Variations]"
Added Pin To Net: NetName=NetAS3_1 Pin=AS3-1
Added Pin To Net: NetName=NetAS3_2 Pin=AS3-2
Added Pin To Net: NetName=GND Pin=AS3-3
Added Pin To Net: NetName=GND Pin=AS3-4
Added Pin To Net: NetName=NetAS3_5 Pin=AS3-5
Added Pin To Net: NetName=NetAS3_6 Pin=AS3-6
Added Pin To Net: NetName=NetAS3_7 Pin=AS3-7
Added Pin To Net: NetName=NetAS3_8 Pin=AS3-8
Added Pin To Net: NetName=NetAS3_9 Pin=AS3-9
Added Pin To Net: NetName=NetAS3_10 Pin=AS3-10
Added Pin To Net: NetName=NetAS3_11 Pin=AS3-11
Added Pin To Net: NetName=NetAS3_12 Pin=AS3-12
Added Pin To Net: NetName=NetAS3_20 Pin=AS3-20
Added Pin To Net: NetName=NetAS3_21 Pin=AS3-21
Added Pin To Net: NetName=NetAS3_22 Pin=AS3-22
Added Pin To Net: NetName=NetAS3_23 Pin=AS3-23
Added Pin To Net: NetName=NetAS3_24 Pin=AS3-24
Added Pin To Net: NetName=NetAS3_25 Pin=AS3-25
Added Pin To Net: NetName=NetAS3_26 Pin=AS3-26
Added Pin To Net: NetName=NetAS3_27 Pin=AS3-27
Added Pin To Net: NetName=NetAS3_28 Pin=AS3-28
Added Pin To Net: NetName=NetAS3_29 Pin=AS3-29
Added Pin To Net: NetName=NetAS3_30 Pin=AS3-30
Added Pin To Net: NetName=NetAS3_31 Pin=AS3-31
Added Pin To Net: NetName=CNTRL9 Pin=J2-1
Added Pin To Net: NetName=GND Pin=J2-2
Added Pin To Net: NetName=CNTRL10 Pin=J2-3
Added Pin To Net: NetName=CNTRL17 Pin=J2-4
Added Pin To Net: NetName=CNTRL11 Pin=J2-5
Added Pin To Net: NetName=GND Pin=J2-6
Added Pin To Net: NetName=CNTRL12 Pin=J2-7
Added Pin To Net: NetName=CNTRL18 Pin=J2-8
Added Pin To Net: NetName=CNTRL13 Pin=J2-9
Added Pin To Net: NetName=GND Pin=J2-10
Added Pin To Net: NetName=CNTRL14 Pin=J2-11
Added Pin To Net: NetName=CNTRL19 Pin=J2-12
Added Pin To Net: NetName=CNTRL15 Pin=J2-13
Added Pin To Net: NetName=GND Pin=J2-14
Added Pin To Net: NetName=CNTRL16 Pin=J2-15
Added Pin To Net: NetName=CNTRL20 Pin=J2-16
Added Pin To Net: NetName=CNTRL1 Pin=J2-17
Added Pin To Net: NetName=GND Pin=J2-18
Added Pin To Net: NetName=CNTRL2 Pin=J2-19
Added Pin To Net: NetName=CNTRL21 Pin=J2-20
Added Pin To Net: NetName=CNTRL3 Pin=J2-21
Added Pin To Net: NetName=GND Pin=J2-22
Added Pin To Net: NetName=CNTRL4 Pin=J2-23
Added Pin To Net: NetName=CNTRL22 Pin=J2-24
Added Pin To Net: NetName=CNTRL5 Pin=J2-25
Added Pin To Net: NetName=GND Pin=J2-26
Added Pin To Net: NetName=CNTRL6 Pin=J2-27
Added Pin To Net: NetName=CNTRL23 Pin=J2-28
Added Pin To Net: NetName=CNTRL7 Pin=J2-29
Added Pin To Net: NetName=GND Pin=J2-30
Added Pin To Net: NetName=CNTRL8 Pin=J2-31
Added Pin To Net: NetName=CNTRL24 Pin=J2-32
Added Pin To Net: NetName=V1 Pin=Q1-1
Added Pin To Net: NetName=CNTRL1 Pin=Q1-2
Added Pin To Net: NetName=GND Pin=Q1-3
Added Pin To Net: NetName=V2 Pin=Q2-1
Added Pin To Net: NetName=CNTRL2 Pin=Q2-2
Added Pin To Net: NetName=GND Pin=Q2-3
Added Pin To Net: NetName=V3 Pin=Q3-1
Added Pin To Net: NetName=CNTRL3 Pin=Q3-2
Added Pin To Net: NetName=GND Pin=Q3-3
Added Pin To Net: NetName=V4 Pin=Q4-1
Added Pin To Net: NetName=CNTRL4 Pin=Q4-2
Added Pin To Net: NetName=GND Pin=Q4-3
Added Pin To Net: NetName=V5 Pin=Q5-1
Added Pin To Net: NetName=CNTRL5 Pin=Q5-2
Added Pin To Net: NetName=GND Pin=Q5-3
Added Pin To Net: NetName=V6 Pin=Q6-1
Added Pin To Net: NetName=CNTRL6 Pin=Q6-2
Added Pin To Net: NetName=GND Pin=Q6-3
Added Pin To Net: NetName=V7 Pin=Q7-1
Added Pin To Net: NetName=CNTRL7 Pin=Q7-2
Added Pin To Net: NetName=GND Pin=Q7-3
Added Pin To Net: NetName=V8 Pin=Q8-1
Added Pin To Net: NetName=CNTRL8 Pin=Q8-2
Added Pin To Net: NetName=GND Pin=Q8-3
Added Pin To Net: NetName=V9 Pin=Q9-1
Added Pin To Net: NetName=CNTRL9 Pin=Q9-2
Added Pin To Net: NetName=GND Pin=Q9-3
Added Pin To Net: NetName=V10 Pin=Q10-1
Added Pin To Net: NetName=CNTRL10 Pin=Q10-2
Added Pin To Net: NetName=GND Pin=Q10-3
Added Pin To Net: NetName=V11 Pin=Q11-1
Added Pin To Net: NetName=CNTRL11 Pin=Q11-2
Added Pin To Net: NetName=GND Pin=Q11-3
Added Pin To Net: NetName=V12 Pin=Q12-1
Added Pin To Net: NetName=CNTRL12 Pin=Q12-2
Added Pin To Net: NetName=GND Pin=Q12-3
Added Pin To Net: NetName=V13 Pin=Q13-1
Added Pin To Net: NetName=CNTRL15 Pin=Q13-2
Added Pin To Net: NetName=GND Pin=Q13-3
Added Pin To Net: NetName=V14 Pin=Q14-1
Added Pin To Net: NetName=CNTRL13 Pin=Q14-2
Added Pin To Net: NetName=GND Pin=Q14-3
Added Pin To Net: NetName=V15 Pin=Q15-1
Added Pin To Net: NetName=CNTRL14 Pin=Q15-2
Added Pin To Net: NetName=GND Pin=Q15-3
Added Pin To Net: NetName=V16 Pin=Q16-1
Added Pin To Net: NetName=CNTRL16 Pin=Q16-2
Added Pin To Net: NetName=GND Pin=Q16-3
Added Pin To Net: NetName=V17 Pin=Q17-1
Added Pin To Net: NetName=CNTRL17 Pin=Q17-2
Added Pin To Net: NetName=GND Pin=Q17-3
Added Pin To Net: NetName=V18 Pin=Q18-1
Added Pin To Net: NetName=CNTRL18 Pin=Q18-2
Added Pin To Net: NetName=GND Pin=Q18-3
Added Pin To Net: NetName=V19 Pin=Q19-1
Added Pin To Net: NetName=CNTRL19 Pin=Q19-2
Added Pin To Net: NetName=GND Pin=Q19-3
Added Pin To Net: NetName=V20 Pin=Q20-1
Added Pin To Net: NetName=CNTRL20 Pin=Q20-2
Added Pin To Net: NetName=GND Pin=Q20-3
Added Pin To Net: NetName=V21 Pin=Q21-1
Added Pin To Net: NetName=CNTRL21 Pin=Q21-2
Added Pin To Net: NetName=GND Pin=Q21-3
Added Pin To Net: NetName=V22 Pin=Q22-1
Added Pin To Net: NetName=CNTRL22 Pin=Q22-2
Added Pin To Net: NetName=GND Pin=Q22-3
Added Net: Name=NetAS2_1
Added Net: Name=NetAS2_3
Added Net: Name=NetAS2_5
Added Net: Name=NetAS2_7
Added Net: Name=NetAS2_9
Added Net: Name=NetAS2_11
Added Net: Name=NetAS2_13
Added Net: Name=NetAS2_15
Added Net: Name=NetAS2_17
Added Net: Name=NetAS2_19
Added Net: Name=NetAS2_21
Added Net: Name=NetAS2_23
Added Net: Name=NetAS2_25
Added Net: Name=NetAS2_27
Added Net: Name=NetAS2_28
Added Net: Name=NetAS2_29
Added Net: Name=NetAS2_31
Added Net: Name=NetAS2_32
Added Net: Name=NetAS2_33
Added Net: Name=NetAS2_34
Added Pin To Net: NetName=NetAS3_13 Pin=AS3-13
Added Net: Name=NetAS3_13
Added Pin To Net: NetName=NetAS3_14 Pin=AS3-14
Added Net: Name=NetAS3_14
Added Pin To Net: NetName=NetAS3_15 Pin=AS3-15
Added Net: Name=NetAS3_15
Added Pin To Net: NetName=NetAS3_16 Pin=AS3-16
Added Net: Name=NetAS3_16
Added Pin To Net: NetName=NetAS3_17 Pin=AS3-17
Added Net: Name=NetAS3_17
Added Pin To Net: NetName=NetAS3_18 Pin=AS3-18
Added Net: Name=NetAS3_18
Added Pin To Net: NetName=NetAS3_19 Pin=AS3-19
Added Net: Name=NetAS3_19
Added Pin To Net: NetName=NetAS3_32 Pin=AS3-32
Added Net: Name=NetAS3_32
Added Pin To Net: NetName=NetAS3_33 Pin=AS3-33
Added Net: Name=NetAS3_33
Added Pin To Net: NetName=NetAS3_34 Pin=AS3-34
Added Net: Name=NetAS3_34
Added Pin To Net: NetName=NetJ2_33 Pin=J2-33
Added Pin To Net: NetName=NetJ2_33 Pin=J2-33
Added Net: Name=NetJ2_33
Added Pin To Net: NetName=NetJ2_34 Pin=J2-34
Added Pin To Net: NetName=NetJ2_34 Pin=J2-34
Added Net: Name=NetJ2_34
Added Member To Class: ClassName=2286 Member=Component AS3 USB6008
Added Member To Class: ClassName=2286 Member=Component J2 CON34A
Added Member To Class: ClassName=2286 Member=Component J7A Header 4
Added Member To Class: ClassName=2286 Member=Component Q1 MOSFET-N
Added Member To Class: ClassName=2286 Member=Component Q2 MOSFET-N
Added Member To Class: ClassName=2286 Member=Component Q3 MOSFET-N
Added Member To Class: ClassName=2286 Member=Component Q4 MOSFET-N
Added Member To Class: ClassName=2286 Member=Component Q5 MOSFET-N
Added Member To Class: ClassName=2286 Member=Component Q6 MOSFET-N
Added Member To Class: ClassName=2286 Member=Component Q7 MOSFET-N
Added Member To Class: ClassName=2286 Member=Component Q8 MOSFET-N
Added Member To Class: ClassName=2286 Member=Component Q9 MOSFET-N
Added Member To Class: ClassName=2286 Member=Component Q10 MOSFET-N
Added Member To Class: ClassName=2286 Member=Component Q11 MOSFET-N
Added Member To Class: ClassName=2286 Member=Component Q12 MOSFET-N
Added Member To Class: ClassName=2286 Member=Component Q13 MOSFET-N
Added Member To Class: ClassName=2286 Member=Component Q14 MOSFET-N
Added Member To Class: ClassName=2286 Member=Component Q15 MOSFET-N
Added Member To Class: ClassName=2286 Member=Component Q16 MOSFET-N
Added Member To Class: ClassName=2286 Member=Component Q17 MOSFET-N
Added Member To Class: ClassName=2286 Member=Component Q18 MOSFET-N
Added Member To Class: ClassName=2286 Member=Component Q19 MOSFET-N
Added Member To Class: ClassName=2286 Member=Component Q20 MOSFET-N
Added Member To Class: ClassName=2286 Member=Component Q21 MOSFET-N
Added Member To Class: ClassName=2286 Member=Component Q22 MOSFET-N
Added Member To Class: ClassName=2286 Member=Component Q23 2N3904
