Change Value of Parameter Supplier 1 in Part LS1 Old=Newark New=Digi-Key
Change Value of Parameter Supplier Part Number 1 in Part LS1 Old=36K7700 New=PB385-ND
Change Value of Parameter Supplier 1 in Part LS2 Old=Newark New=Digi-Key
Change Value of Parameter Supplier Part Number 1 in Part LS2 Old=36K7700 New=PB385-ND
Change Value of Parameter Supplier 1 in Part LS4 Old=Newark New=Digi-Key
Change Value of Parameter Supplier Part Number 1 in Part LS4 Old=36K7700 New=PB385-ND
