Removed Pin From Net: NetName=V1 Pin=Q1-1
Removed Pin From Net: NetName=CNTRL1 Pin=Q1-2
Removed Pin From Net: NetName=V2 Pin=Q2-1
Removed Pin From Net: NetName=CNTRL2 Pin=Q2-2
Removed Pin From Net: NetName=V3 Pin=Q3-1
Removed Pin From Net: NetName=CNTRL3 Pin=Q3-2
Removed Pin From Net: NetName=V4 Pin=Q4-1
Removed Pin From Net: NetName=CNTRL4 Pin=Q4-2
Removed Pin From Net: NetName=V5 Pin=Q5-1
Removed Pin From Net: NetName=CNTRL5 Pin=Q5-2
Removed Pin From Net: NetName=V6 Pin=Q6-1
Removed Pin From Net: NetName=CNTRL6 Pin=Q6-2
Removed Pin From Net: NetName=V7 Pin=Q7-1
Removed Pin From Net: NetName=CNTRL7 Pin=Q7-2
Removed Pin From Net: NetName=V8 Pin=Q8-1
Removed Pin From Net: NetName=CNTRL8 Pin=Q8-2
Removed Pin From Net: NetName=V9 Pin=Q9-1
Removed Pin From Net: NetName=CNTRL9 Pin=Q9-2
Removed Pin From Net: NetName=V10 Pin=Q10-1
Removed Pin From Net: NetName=CNTRL10 Pin=Q10-2
Removed Pin From Net: NetName=V11 Pin=Q11-1
Removed Pin From Net: NetName=CNTRL11 Pin=Q11-2
Removed Pin From Net: NetName=V12 Pin=Q12-1
Removed Pin From Net: NetName=CNTRL12 Pin=Q12-2
Removed Pin From Net: NetName=V13 Pin=Q13-1
Removed Pin From Net: NetName=CNTRL15 Pin=Q13-2
Removed Pin From Net: NetName=V14 Pin=Q14-1
Removed Pin From Net: NetName=CNTRL13 Pin=Q14-2
Removed Pin From Net: NetName=V15 Pin=Q15-1
Removed Pin From Net: NetName=CNTRL14 Pin=Q15-2
Removed Pin From Net: NetName=V16 Pin=Q16-1
Removed Pin From Net: NetName=CNTRL16 Pin=Q16-2
Removed Pin From Net: NetName=V17 Pin=Q17-1
Removed Pin From Net: NetName=CNTRL17 Pin=Q17-2
Removed Pin From Net: NetName=V18 Pin=Q18-1
Removed Pin From Net: NetName=CNTRL18 Pin=Q18-2
Removed Pin From Net: NetName=V19 Pin=Q19-1
Removed Pin From Net: NetName=CNTRL19 Pin=Q19-2
Removed Pin From Net: NetName=V20 Pin=Q20-1
Removed Pin From Net: NetName=CNTRL20 Pin=Q20-2
Removed Pin From Net: NetName=V21 Pin=Q21-1
Removed Pin From Net: NetName=CNTRL21 Pin=Q21-2
Removed Pin From Net: NetName=V22 Pin=Q22-1
Removed Pin From Net: NetName=CNTRL22 Pin=Q22-2
Added Component: Designator=AS2D(USB6501)
Add component. Clean all parameters for all variants
Add component (AddParameter): Name = ""; Value = ""; VariantName = "[No Variations]"
Add component (AddParameter): Name = "COMPFIXED"; Value = "NO"; VariantName = "[No Variations]"
Add component (AddParameter): Name = "COMPGROUP"; Value = "0"; VariantName = "[No Variations]"
Add component (AddParameter): Name = "COMPHEIGHT"; Value = "0.000"; VariantName = "[No Variations]"
Add component (AddParameter): Name = "COMPKEY"; Value = "NO"; VariantName = "[No Variations]"
Add component (AddParameter): Name = "COMPLOC"; Value = "[8200.000,1700.000]"; VariantName = "[No Variations]"
Add component (AddParameter): Name = "COMPLOCKED"; Value = "NO"; VariantName = "[No Variations]"
Add component (AddParameter): Name = "COMPROT"; Value = "90"; VariantName = "[No Variations]"
Add component (AddParameter): Name = "COMPSIDE"; Value = "TOP"; VariantName = "[No Variations]"
Add component (AddParameter): Name = "DECOUPLER"; Value = "NO"; VariantName = "[No Variations]"
Add component (AddParameter): Name = "FPLIST"; Value = "BLKCON.100/VH/TM2OE/W.200/34"; VariantName = "[No Variations]"
Add component (AddParameter): Name = "MEMORY"; Value = "NO"; VariantName = "[No Variations]"
Add component (AddParameter): Name = "Supplier 1"; Value = "National Instruments"; VariantName = "[No Variations]"
Add component (AddParameter): Name = "Supplier Part Number 1"; Value = "192317"; VariantName = "[No Variations]"
Add component (AddParameter): Name = "Supplier Unit Price 1"; Value = "99.00"; VariantName = "[No Variations]"
Add component (AddParameter): Name = "WPN"; Value = "40491"; VariantName = "[No Variations]"
Added Pin To Net: NetName=NetAS2_1 Pin=AS2D-1
Added Pin To Net: NetName=GND Pin=AS2D-2
Added Pin To Net: NetName=NetAS2_3 Pin=AS2D-3
Added Pin To Net: NetName=CNTRL9 Pin=J2-1
Added Pin To Net: NetName=GND Pin=J2-2
Added Pin To Net: NetName=CNTRL10 Pin=J2-3
Added Pin To Net: NetName=CNTRL17 Pin=J2-4
Added Pin To Net: NetName=CNTRL11 Pin=J2-5
Added Pin To Net: NetName=GND Pin=J2-6
Added Pin To Net: NetName=CNTRL12 Pin=J2-7
Added Pin To Net: NetName=CNTRL18 Pin=J2-8
Added Pin To Net: NetName=CNTRL13 Pin=J2-9
Added Pin To Net: NetName=GND Pin=J2-10
Added Pin To Net: NetName=CNTRL14 Pin=J2-11
Added Pin To Net: NetName=CNTRL19 Pin=J2-12
Added Pin To Net: NetName=CNTRL15 Pin=J2-13
Added Pin To Net: NetName=GND Pin=J2-14
Added Pin To Net: NetName=CNTRL16 Pin=J2-15
Added Pin To Net: NetName=CNTRL20 Pin=J2-16
Added Pin To Net: NetName=CNTRL1 Pin=J2-17
Added Pin To Net: NetName=GND Pin=J2-18
Added Pin To Net: NetName=CNTRL2 Pin=J2-19
Added Pin To Net: NetName=CNTRL21 Pin=J2-20
Added Pin To Net: NetName=CNTRL3 Pin=J2-21
Added Pin To Net: NetName=GND Pin=J2-22
Added Pin To Net: NetName=CNTRL4 Pin=J2-23
Added Pin To Net: NetName=CNTRL22 Pin=J2-24
Added Pin To Net: NetName=CNTRL5 Pin=J2-25
Added Pin To Net: NetName=GND Pin=J2-26
Added Pin To Net: NetName=CNTRL6 Pin=J2-27
Added Pin To Net: NetName=CNTRL23 Pin=J2-28
Added Pin To Net: NetName=CNTRL7 Pin=J2-29
Added Pin To Net: NetName=GND Pin=J2-30
Added Pin To Net: NetName=CNTRL8 Pin=J2-31
Added Pin To Net: NetName=CNTRL24 Pin=J2-32
Added Pin To Net: NetName=NetJ2_33 Pin=J2-33
Added Pin To Net: NetName=NetJ2_34 Pin=J2-34
Added Pin To Net: NetName=CNTRL1 Pin=Q1-1
Added Pin To Net: NetName=V1 Pin=Q1-2
Added Pin To Net: NetName=CNTRL2 Pin=Q2-1
Added Pin To Net: NetName=V2 Pin=Q2-2
Added Pin To Net: NetName=CNTRL3 Pin=Q3-1
Added Pin To Net: NetName=V3 Pin=Q3-2
Added Pin To Net: NetName=CNTRL4 Pin=Q4-1
Added Pin To Net: NetName=V4 Pin=Q4-2
Added Pin To Net: NetName=CNTRL5 Pin=Q5-1
Added Pin To Net: NetName=V5 Pin=Q5-2
Added Pin To Net: NetName=CNTRL6 Pin=Q6-1
Added Pin To Net: NetName=V6 Pin=Q6-2
Added Pin To Net: NetName=CNTRL7 Pin=Q7-1
Added Pin To Net: NetName=V7 Pin=Q7-2
Added Pin To Net: NetName=CNTRL8 Pin=Q8-1
Added Pin To Net: NetName=V8 Pin=Q8-2
Added Pin To Net: NetName=CNTRL9 Pin=Q9-1
Added Pin To Net: NetName=V9 Pin=Q9-2
Added Pin To Net: NetName=CNTRL10 Pin=Q10-1
Added Pin To Net: NetName=V10 Pin=Q10-2
Added Pin To Net: NetName=CNTRL11 Pin=Q11-1
Added Pin To Net: NetName=V11 Pin=Q11-2
Added Pin To Net: NetName=CNTRL12 Pin=Q12-1
Added Pin To Net: NetName=V12 Pin=Q12-2
Added Pin To Net: NetName=CNTRL15 Pin=Q13-1
Added Pin To Net: NetName=V13 Pin=Q13-2
Added Pin To Net: NetName=CNTRL13 Pin=Q14-1
Added Pin To Net: NetName=V14 Pin=Q14-2
Added Pin To Net: NetName=CNTRL14 Pin=Q15-1
Added Pin To Net: NetName=V15 Pin=Q15-2
Added Pin To Net: NetName=CNTRL16 Pin=Q16-1
Added Pin To Net: NetName=V16 Pin=Q16-2
Added Pin To Net: NetName=CNTRL17 Pin=Q17-1
Added Pin To Net: NetName=V17 Pin=Q17-2
Added Pin To Net: NetName=CNTRL18 Pin=Q18-1
Added Pin To Net: NetName=V18 Pin=Q18-2
Added Pin To Net: NetName=CNTRL19 Pin=Q19-1
Added Pin To Net: NetName=V19 Pin=Q19-2
Added Pin To Net: NetName=CNTRL20 Pin=Q20-1
Added Pin To Net: NetName=V20 Pin=Q20-2
Added Pin To Net: NetName=CNTRL21 Pin=Q21-1
Added Pin To Net: NetName=V21 Pin=Q21-2
Added Pin To Net: NetName=CNTRL22 Pin=Q22-1
Added Pin To Net: NetName=V22 Pin=Q22-2
Added Member To Class: ClassName=2286 Member=Component AS2D CON34A
Added Member To Class: ClassName=2286 Member=Component J2 CON34A
