Removed Pin From Net: NetName=NetJP3_7 Pin=LS5-4
Added Pin To Net: NetName=NetJP3_7 Pin=LS5-13
Added Pin To Net: NetName=NetJP3_9 Pin=JP3-9
Added Pin To Net: NetName=NetJP3_9 Pin=LS5-4
Added Net: Name=NetJP3_9
