Removed Pin From Net: NetName=V22 Pin=D2-A
Removed Pin From Net: NetName=V21 Pin=D3-A
Removed Pin From Net: NetName=V19 Pin=D4-A
Removed Pin From Net: NetName=V20 Pin=D5-A
Removed Pin From Net: NetName=V21 Pin=LS1-16
Removed Pin From Net: NetName=V22 Pin=LS2-16
Removed Pin From Net: NetName=V19 Pin=LS4-16
Removed Pin From Net: NetName=V20 Pin=LS5-16
Removed Pin From Net: NetName=V1 Pin=P1-1
Removed Pin From Net: NetName=V2 Pin=P1-3
Removed Pin From Net: NetName=V3 Pin=P1-5
Removed Pin From Net: NetName=V4 Pin=P1-7
Removed Pin From Net: NetName=V5 Pin=P1-9
Removed Pin From Net: NetName=V6 Pin=P1-11
Removed Pin From Net: NetName=V7 Pin=P1-13
Removed Pin From Net: NetName=V8 Pin=P1-15
Removed Pin From Net: NetName=V9 Pin=P1-17
Removed Pin From Net: NetName=V10 Pin=P1-19
Removed Pin From Net: NetName=V11 Pin=P1-21
Removed Pin From Net: NetName=V12 Pin=P1-23
Removed Pin From Net: NetName=V13 Pin=P1-25
Removed Pin From Net: NetName=V14 Pin=P1-27
Removed Pin From Net: NetName=V15 Pin=P1-29
Removed Pin From Net: NetName=V16 Pin=P1-31
Removed Pin From Net: NetName=V17 Pin=P1-33
Removed Pin From Net: NetName=V18 Pin=P1-35
Removed Pin From Net: NetName=V1 Pin=U1-2
Removed Pin From Net: NetName=V2 Pin=U1-7
Removed Pin From Net: NetName=V3 Pin=U1-9
Removed Pin From Net: NetName=V4 Pin=U1-16
Removed Pin From Net: NetName=V5 Pin=U2-2
Removed Pin From Net: NetName=V6 Pin=U2-7
Removed Pin From Net: NetName=V7 Pin=U2-9
Removed Pin From Net: NetName=V8 Pin=U2-16
Removed Pin From Net: NetName=V9 Pin=U3-2
Removed Pin From Net: NetName=V10 Pin=U3-7
Removed Pin From Net: NetName=V11 Pin=U3-9
Removed Pin From Net: NetName=V12 Pin=U3-16
Removed Pin From Net: NetName=V13 Pin=U4-2
Removed Pin From Net: NetName=V14 Pin=U4-7
Removed Pin From Net: NetName=V15 Pin=U4-9
Removed Pin From Net: NetName=V16 Pin=U4-16
Removed Pin From Net: NetName=V17 Pin=U5-2
Removed Pin From Net: NetName=V18 Pin=U5-7
Removed Pin From Net: NetName=V19 Pin=U5-9
Removed Pin From Net: NetName=V20 Pin=U5-16
Removed Pin From Net: NetName=V21 Pin=U6-2
Removed Pin From Net: NetName=V22 Pin=U6-7
Added Component: Designator=C7(SM_ELECTROLYTIC_16V_SERIES_FC)
Add component. Clean all parameters for all variants
Add component (AddParameter): Name = "1ST PART FIELD"; Value = "25V"; VariantName = "[No Variations]"
Add component (AddParameter): Name = "8TH PART FIELD"; Value = ""; VariantName = "[No Variations]"
Add component (AddParameter): Name = "COMPFIXED"; Value = "NO"; VariantName = "[No Variations]"
Add component (AddParameter): Name = "COMPGROUP"; Value = "0"; VariantName = "[No Variations]"
Add component (AddParameter): Name = "COMPHEIGHT"; Value = "0.000"; VariantName = "[No Variations]"
Add component (AddParameter): Name = "COMPKEY"; Value = "NO"; VariantName = "[No Variations]"
Add component (AddParameter): Name = "COMPLOC"; Value = "[1600.000,900.000]"; VariantName = "[No Variations]"
Add component (AddParameter): Name = "COMPLOCKED"; Value = "NO"; VariantName = "[No Variations]"
Add component (AddParameter): Name = "COMPROT"; Value = "270"; VariantName = "[No Variations]"
Add component (AddParameter): Name = "COMPSIDE"; Value = "BOT"; VariantName = "[No Variations]"
Add component (AddParameter): Name = "DECOUPLER"; Value = "NO"; VariantName = "[No Variations]"
Add component (AddParameter): Name = "FPLIST"; Value = "CPCYL/D.200/LS.125/.031,CPCYL/D.350/LS.175/.034"; VariantName = "[No Variations]"
Add component (AddParameter): Name = "MEMORY"; Value = "NO"; VariantName = "[No Variations]"
Added Net: Name=NetAS3_1
Added Net: Name=NetAS3_2
Added Net: Name=NetAS3_5
Added Net: Name=NetAS3_6
Added Net: Name=NetAS3_7
Added Net: Name=NetAS3_8
Added Net: Name=NetAS3_9
Added Net: Name=NetAS3_10
Added Net: Name=NetAS3_11
Added Net: Name=NetAS3_12
Added Net: Name=NetAS3_20
Added Net: Name=NetAS3_21
Added Net: Name=NetAS3_22
Added Net: Name=NetAS3_23
Added Net: Name=NetAS3_24
Added Net: Name=NetAS3_25
Added Net: Name=NetAS3_26
Added Net: Name=NetAS3_27
Added Net: Name=NetAS3_28
Added Net: Name=NetAS3_29
Added Net: Name=NetAS3_30
Added Net: Name=NetAS3_31
Added Net: Name=NetC8_1
Added Net: Name=NetD1_A
Added Net: Name=NetJP1_2
Added Net: Name=NetJP1_3
Added Net: Name=NetJP3_1
Added Net: Name=NetJP3_2
Added Net: Name=NetJP3_3
Added Net: Name=NetJP3_4
Added Net: Name=NetJP3_7
Added Net: Name=NetJP3_8
Added Net: Name=NetJP3_9
Added Net: Name=NetJP3_10
Added Net: Name=NetR18_1
Added Class: Name=2286
Added Class: Name=CNTRL[1..24]
Added Class: Name=V[1..24]
Added Room: Name=2286
