Change Component Designator: OldDesignator=J? NewDesignator=J1
Change Component Designator: OldDesignator=J? NewDesignator=J4
Change Component Designator: OldDesignator=J? NewDesignator=J5
Change Component Designator: OldDesignator=J? NewDesignator=J6
Change Component Designator: OldDesignator=J? NewDesignator=J8
Change Component Designator: OldDesignator=J? NewDesignator=J9
Added Member To Class: ClassName=2286 Member=Component J1 Socket
Added Member To Class: ClassName=2286 Member=Component J4 Socket
Added Member To Class: ClassName=2286 Member=Component J5 Socket
Added Member To Class: ClassName=2286 Member=Component J6 Socket
Added Member To Class: ClassName=2286 Member=Component J8 Socket
