M48
;Layer_Color=9474304
;FILE_FORMAT=2:5
INCH,LZ
;TYPE=PLATED
T1F00S00C0.02800
T2F00S00C0.03100
T3F00S00C0.03346
T4F00S00C0.03400
T5F00S00C0.03500
T6F00S00C0.03504
T7F00S00C0.03900
T8F00S00C0.04200
T9F00S00C0.04600
T10F00S00C0.05400
T11F00S00C0.06200
T12F00S00C0.11614
T13F00S00C0.12000
T14F00S00C0.12500
T15F00S00C0.14700
;TYPE=NON_PLATED
T16F00S00C0.11614
T17F00S00C0.12500
T18F00S00C0.14700
%
T01
X0053445Y0104142
X0072Y01055
X00715Y0113
X0090445Y0104142
X01Y0107
X0109Y01185
X0128445Y0109142
X01375Y0106
X01465Y01085
X0166Y01035
X0175Y01055
X0184
X02035Y01035
X0240945Y0104142
X025Y01045
X0402267Y0105095
X0777067Y0190733
X0712867Y0276733
X0469Y0257
X0478055Y0239858
X0440055
X0431Y0238
X0400055Y0239858
X0499567Y0208995
X0381945Y0259795
X03515Y0258
X0360555Y0239858
X026Y0223
X0238445Y0216642
X02505Y0197
X025Y016
X0240945Y0159823
X02675Y0162
X0227Y0175
X0214445Y0160036
X0202822Y0159823
X0184Y0159867
X0175
X0165945Y0159823
X0170367Y0172095
X01495Y01765
X0138Y01595
X0128445Y0159142
X0123567Y0182662
X0128445Y0214142
X01375Y02155
X0163445Y0216642
X0175Y01965
X01935Y02095
X0203445Y0214142
X01125Y02385
X01Y0234
X0090945Y0219142
Y0159142
X01005Y0163
X0072Y0171
X00635Y0161
X0053445Y0159142
Y0214142
X00625Y02185
X00695Y0295
T02
X0164Y0384
X0174Y0394
Y0374
T03
X0177Y0435
X0227
X0239
X0289
T04
X0285999Y0453
Y0473
X0206999Y04705
Y0458
T05
X0068499Y0305001
X0068492Y0335023
X00675Y0376001
X0067492Y0406023
X0068999Y0439501
X0098992Y0439523
X0118992
X0138992
X0137492Y0406023
X0117492
X0097492
Y0376023
X0117492
X0137492
X0138492Y0335023
X0118492
X0098492
Y0305023
X0118492
X0138492
X0215499Y0370001
X0215492Y0400023
X0245492
X0265492
X0285492
Y0370023
X0265492
X0245492
X0138992Y0469523
X0118992
X0098992
X0097992Y0510523
X0117992
X0137992
Y0540523
X0117992
X0097992
X0067992
X0068Y0510501
X0068992Y0469523
T06
X0586Y03865
X0596
Y03965
Y04065
Y04165
Y04265
X0586
Y04165
Y04065
Y03965
X05825Y0577
Y0587
X05925
X06025
X06125
X06225
Y0577
X06125
X06025
X05925
X0182Y0579
Y0589
X0172
X0162
X0152
X0142
Y0579
X0152
X0162
X0172
T07
X0393543Y019
X0403543
Y02
X0413543
X0423543
Y019
X0413543
X0433543
X0443543
X0453543
X0463543
X0473543
X0483543
X0493543
Y02
X0483543
X0473543
X0463543
X0453543
X0443543
X0433543
X0393543
X0383543
Y019
X0373543
X0363543
X0353543
X0343543
X0333543
Y02
X0343543
X0353543
X0363543
X0373543
X067445Y04451
X06845
X06945
Y04551
X06845
X06745
X07045
Y04451
X07145
X07245
X07345
X07445
X07545
X07645
X07745
X07845
X07945
X08045
X08145
X08245
X08345
Y04551
X08245
X08145
X08045
X07945
X07845
X07745
X07645
X07545
X07445
X07345
X07245
X07145
T08
X0342748Y0122801
X0353648
X0364548
X0375448
X0386349
X0380898Y0134001
X0369999
X0359099
X0348199
X0337298
X0391798
X0402699
X0413598
X0424499
X0435398
X0446299
X0457198
X0468098
X0478999
X0489898
X0500799
X0511698
X0522599
X0533498
X0528049Y0122801
X0517148
X0506249
X0495349
X0484448
X0473549
X0462648
X0451749
X0440848
X0429949
X0419049
X0408148
X0397249
X0706149Y00872
X071705
X0727949
X0738849
X074975
X0760649
X077155
X0782449
X079335
X0804249
X0815149
X082605
X0831499Y0076
X0820599
X08097
X07988
X0787899
X0777
X07661
X0755199
X07443
X0733399
X07225
X0711599
X07007
X070515Y01588
X0716049
X072695
X073785
X0748749
X075965
X0770549
X078145
X0792349
X0803249
X0814149
X0825049
X08196Y017
X08087
X0797799
X07869
X0775999
X0765099
X07542
X0743299
X07324
X0721499
X07106
X0699699
X0830499
T09
X00485Y0295
Y0345
Y0365
Y0415
Y04295
X0197Y04095
X0229Y04155
X0197Y03595
X0279Y04155
X00485Y04795
X00475Y05005
Y05505
T10
X0240499Y0453
X02505
X02605
T11
X02955Y0579
X03155
X03355
X03555
T12
X0591984Y0351303
X0547303Y0581016
X0106803Y0583016
T13
X0310399Y0128401
X0560398
X0673499Y00816
X08587
X0857699Y01644
X06725
T14
X04135Y0379
X04785Y0512
X03485
T15
X02505Y05125
T16
X0591984Y0461697
X0657697Y0581016
X0217197Y0583016
T17
X07545Y024865
X08195Y0479513
X06895Y0479513
T18
X003Y003
X045
X087
Y058
X045
X003
M30
